Test_F1/top.vcd
$version Generated by VerilatedVcd $end
$date Tue Dec  5 15:40:28 2023 $end
$timescale 1ps $end

 $scope module TOP $end
  $var wire 32 o A0 [31:0] $end
  $var wire  1 n T0 $end
  $var wire  1 l clk $end
  $var wire  1 m rst $end
  $scope module Top $end
   $var wire 32 o A0 [31:0] $end
   $var wire  3 N ALUCTRL [2:0] $end
   $var wire  1 O ALUSRC $end
   $var wire  1 X EQ $end
   $var wire 32 V IMMOP [31:0] $end
   $var wire  3 P IMMSRC [2:0] $end
   $var wire 32 W INSTRUCT [31:0] $end
   $var wire  1 R JUMPSRC $end
   $var wire  1 M MEMWRITE $end
   $var wire 32 T PCPLUS4 [31:0] $end
   $var wire  1 K PCSRC $end
   $var wire 32 F PCTARGET_TO_PC [31:0] $end
   $var wire 32 U PCTARGET_TO_RMAD [31:0] $end
   $var wire 32 S PC_OUT [31:0] $end
   $var wire  1 Q REGWRITE $end
   $var wire  2 L RESULTSRC [1:0] $end
   $var wire  1 n T0 $end
   $var wire 32 p WIDTH [31:0] $end
   $var wire  1 l clk $end
   $var wire  1 m rst $end
   $scope module CPU_CU $end
    $var wire  3 Y ALUOp [2:0] $end
    $var wire 32 p WIDTH [31:0] $end
    $var wire  3 N alu_ctrl [2:0] $end
    $var wire  1 O alu_src $end
    $var wire  1 Z branch $end
    $var wire  1 X eq $end
    $var wire  3 P imm_src [2:0] $end
    $var wire 32 W instr [31:0] $end
    $var wire  1 [ jump $end
    $var wire  1 R jump_src $end
    $var wire  1 M mem_write $end
    $var wire  1 K pc_src $end
    $var wire  1 Q reg_write $end
    $var wire  2 L result_src [1:0] $end
    $scope module ALU_Decoder $end
     $var wire 32 q ALUOP_WIDTH [31:0] $end
     $var wire 32 q F3_WIDTH [31:0] $end
     $var wire 32 r F7_WIDTH [31:0] $end
     $var wire 32 r OP_WIDTH [31:0] $end
     $var wire  3 N alu_ctrl [2:0] $end
     $var wire  3 Y alu_op [2:0] $end
     $var wire  3 ] funct3 [2:0] $end
     $var wire  7 ^ funct7 [6:0] $end
     $var wire  7 \ op [6:0] $end
     $scope module unnamedblk1 $end
      $var wire  3 ` i_type [2:0] $end
      $var wire  2 _ test [1:0] $end
     $upscope $end
    $upscope $end
    $scope module Main_Decoder $end
     $var wire 32 s WIDTH_2 [31:0] $end
     $var wire 32 q WIDTH_3 [31:0] $end
     $var wire 32 r WIDTH_OP [31:0] $end
     $var wire  3 Y alu_op [2:0] $end
     $var wire  1 O alu_src $end
     $var wire  1 Z branch $end
     $var wire 14 a command_code [13:0] $end
     $var wire  3 P imm_src [2:0] $end
     $var wire  1 [ jump $end
     $var wire  1 R jump_src $end
     $var wire  1 M mem_write $end
     $var wire  7 \ op [6:0] $end
     $var wire  1 Q reg_write $end
     $var wire  2 L result_src [1:0] $end
     $scope module unnamedblk1 $end
      $var wire  7 b opcode [6:0] $end
     $upscope $end
    $upscope $end
   $upscope $end
   $scope module CPU_PC $end
    $var wire 32 V ImmOp [31:0] $end
    $var wire 32 T PC_Plus4 [31:0] $end
    $var wire 32 F PC_TargetI [31:0] $end
    $var wire 32 U PC_TargetO [31:0] $end
    $var wire 32 S PC_out [31:0] $end
    $var wire  1 K PCsrc $end
    $var wire 32 p WIDTH [31:0] $end
    $var wire  1 l clk $end
    $var wire 32 G next_PC [31:0] $end
    $var wire  1 m rst $end
    $scope module PC_Reg $end
     $var wire 32 S PC [31:0] $end
     $var wire 32 p WIDTH [31:0] $end
     $var wire  1 l clk $end
     $var wire 32 G next_PC [31:0] $end
     $var wire  1 m rst $end
    $upscope $end
    $scope module PC_mux $end
     $var wire 32 p WIDTH [31:0] $end
     $var wire 32 T i0 [31:0] $end
     $var wire 32 F i1 [31:0] $end
     $var wire 32 G out [31:0] $end
     $var wire  1 K s $end
    $upscope $end
   $upscope $end
   $scope module CPU_RMAD $end
    $var wire  5 c A1 [4:0] $end
    $var wire  5 d A2 [4:0] $end
    $var wire  5 e A3 [4:0] $end
    $var wire 32 t ADDRESS_WIDTH [31:0] $end
    $var wire  3 N ALUControl [2:0] $end
    $var wire 32 i ALUResult [31:0] $end
    $var wire  1 O ALUSrc $end
    $var wire 32 p DATA_WIDTH [31:0] $end
    $var wire 32 V ImmExt [31:0] $end
    $var wire  1 R JumpSrc $end
    $var wire  1 M MemWrite $end
    $var wire 32 T PCPlus4 [31:0] $end
    $var wire 32 U PCtargetIn [31:0] $end
    $var wire 32 F PCtargetOut [31:0] $end
    $var wire 32 g RD2 [31:0] $end
    $var wire 32 H ReadData [31:0] $end
    $var wire  1 Q RegWrite $end
    $var wire 32 I Result [31:0] $end
    $var wire  2 L ResultSrc [1:0] $end
    $var wire 32 f SrcA [31:0] $end
    $var wire 32 h SrcB [31:0] $end
    $var wire  1 X Zero $end
    $var wire 32 o a0 [31:0] $end
    $var wire  1 l clk $end
    $var wire 32 # ra [31:0] $end
    $var wire  1 n trigger $end
    $scope module Arithmetic_logic_unit $end
     $var wire 32 i ALU_Result [31:0] $end
     $var wire  3 N ALUctrl [2:0] $end
     $var wire 32 f ALUop1 [31:0] $end
     $var wire 32 h ALUop2 [31:0] $end
     $var wire 32 i ALUout [31:0] $end
     $var wire 32 p DATA_WIDTH [31:0] $end
     $var wire  1 X Zero $end
    $upscope $end
    $scope module DataMem $end
     $var wire 32 i A [31:0] $end
     $var wire 32 p DATA_WIDTH [31:0] $end
     $var wire 32 H RD [31:0] $end
     $var wire 32 $ Reg_File[-1] [31:0] $end
     $var wire 32 % Reg_File[0] [31:0] $end
     $var wire 32 g WD [31:0] $end
     $var wire  1 M WE $end
     $var wire  1 l clk $end
    $upscope $end
    $scope module FirstMux $end
     $var wire 32 p DATA_WIDTH [31:0] $end
     $var wire 32 g in0 [31:0] $end
     $var wire 32 V in1 [31:0] $end
     $var wire 32 h out [31:0] $end
     $var wire  1 O select $end
    $upscope $end
    $scope module Register $end
     $var wire  5 c A1 [4:0] $end
     $var wire  5 d A2 [4:0] $end
     $var wire  5 e A3 [4:0] $end
     $var wire 32 t ADDRESS_WIDTH [31:0] $end
     $var wire 32 p DATA_WIDTH [31:0] $end
     $var wire 32 f RD1 [31:0] $end
     $var wire 32 g RD2 [31:0] $end
     $var wire 32 & Reg_File[0] [31:0] $end
     $var wire 32 0 Reg_File[10] [31:0] $end
     $var wire 32 1 Reg_File[11] [31:0] $end
     $var wire 32 2 Reg_File[12] [31:0] $end
     $var wire 32 3 Reg_File[13] [31:0] $end
     $var wire 32 4 Reg_File[14] [31:0] $end
     $var wire 32 5 Reg_File[15] [31:0] $end
     $var wire 32 6 Reg_File[16] [31:0] $end
     $var wire 32 7 Reg_File[17] [31:0] $end
     $var wire 32 8 Reg_File[18] [31:0] $end
     $var wire 32 9 Reg_File[19] [31:0] $end
     $var wire 32 ' Reg_File[1] [31:0] $end
     $var wire 32 : Reg_File[20] [31:0] $end
     $var wire 32 ; Reg_File[21] [31:0] $end
     $var wire 32 < Reg_File[22] [31:0] $end
     $var wire 32 = Reg_File[23] [31:0] $end
     $var wire 32 > Reg_File[24] [31:0] $end
     $var wire 32 ? Reg_File[25] [31:0] $end
     $var wire 32 @ Reg_File[26] [31:0] $end
     $var wire 32 A Reg_File[27] [31:0] $end
     $var wire 32 B Reg_File[28] [31:0] $end
     $var wire 32 C Reg_File[29] [31:0] $end
     $var wire 32 ( Reg_File[2] [31:0] $end
     $var wire 32 D Reg_File[30] [31:0] $end
     $var wire 32 E Reg_File[31] [31:0] $end
     $var wire 32 ) Reg_File[3] [31:0] $end
     $var wire 32 * Reg_File[4] [31:0] $end
     $var wire 32 + Reg_File[5] [31:0] $end
     $var wire 32 , Reg_File[6] [31:0] $end
     $var wire 32 - Reg_File[7] [31:0] $end
     $var wire 32 . Reg_File[8] [31:0] $end
     $var wire 32 / Reg_File[9] [31:0] $end
     $var wire 32 I WD3 [31:0] $end
     $var wire  1 Q WE3 $end
     $var wire 32 o a0 [31:0] $end
     $var wire  1 l clk $end
     $var wire 32 # ra [31:0] $end
     $var wire  1 n trigger $end
    $upscope $end
    $scope module SecondMux $end
     $var wire 32 p DATA_WIDTH [31:0] $end
     $var wire 32 U in0 [31:0] $end
     $var wire 32 # in1 [31:0] $end
     $var wire 32 F out [31:0] $end
     $var wire  1 R select $end
    $upscope $end
    $scope module ThreeInputMux $end
     $var wire 32 p DATA_WIDTH [31:0] $end
     $var wire 32 J MuxInput [31:0] $end
     $var wire 32 i in0 [31:0] $end
     $var wire 32 H in1 [31:0] $end
     $var wire 32 T in2 [31:0] $end
     $var wire 32 I out [31:0] $end
     $var wire  2 L select [1:0] $end
    $upscope $end
   $upscope $end
   $scope module CPU_ROM $end
    $var wire 32 p ADDRESS_WIDTH [31:0] $end
    $var wire 32 p DATA_WIDTH [31:0] $end
    $var wire 32 u READ_WIDTH [31:0] $end
    $var wire 32 S addr [31:0] $end
    $var wire 32 W instr [31:0] $end
    $var wire  8 j short [7:0] $end
   $upscope $end
   $scope module CPU_SIGNEXTEND $end
    $var wire 32 W code [31:0] $end
    $var wire 20 k extend [19:0] $end
    $var wire 32 V immop [31:0] $end
    $var wire  3 P immscr [2:0] $end
   $upscope $end
  $upscope $end
 $upscope $end
$enddefinitions $end


#0
b00000000000000000000000000000000 #
b00000000000000000000000000000000 $
b00000000000000000000000000000000 %
b00000000000000000000000000000000 &
b00000000000000000000000000000000 '
b00000000000000000000000000000000 (
b00000000000000000000000000000000 )
b00000000000000000000000000000000 *
b00000000000000000000000000000000 +
b00000000000000000000000000000000 ,
b00000000000000000000000000000000 -
b00000000000000000000000000000000 .
b00000000000000000000000000000000 /
b00000000000000000000000000000000 0
b00000000000000000000000000000000 1
b00000000000000000000000000000000 2
b00000000000000000000000000000000 3
b00000000000000000000000000000000 4
b00000000000000000000000000000000 5
b00000000000000000000000000000000 6
b00000000000000000000000000000000 7
b00000000000000000000000000000000 8
b00000000000000000000000000000000 9
b00000000000000000000000000000000 :
b00000000000000000000000000000000 ;
b00000000000000000000000000000000 <
b00000000000000000000000000000000 =
b00000000000000000000000000000000 >
b00000000000000000000000000000000 ?
b00000000000000000000000000000000 @
b00000000000000000000000000000000 A
b00000000000000000000000000000000 B
b00000000000000000000000000000000 C
b00000000000000000000000000000000 D
b00000000000000000000000000000000 E
b00000000000000000000000000000000 F
b00000000000000000000000000000100 G
b00000000000000000000000000000000 H
b00000000000000000000000000000000 I
b00000000000000000000000000000000 J
0K
b00 L
0M
b000 N
0O
b000 P
0Q
0R
b00000000000000000000000000000000 S
b00000000000000000000000000000100 T
b00000000000000000000000000000000 U
b00000000000000000000000000000000 V
b00000000000000000000000000000000 W
1X
b000 Y
0Z
0[
b0000000 \
b000 ]
b0000000 ^
b00 _
b000 `
b00000000000000 a
b0000000 b
b00000 c
b00000 d
b00000 e
b00000000000000000000000000000000 f
b00000000000000000000000000000000 g
b00000000000000000000000000000000 h
b00000000000000000000000000000000 i
b00000000 j
b00000000000000000000 k
1l
0m
0n
b00000000000000000000000000000000 o
b00000000000000000000000000100000 p
b00000000000000000000000000000011 q
b00000000000000000000000000000111 r
b00000000000000000000000000000010 s
b00000000000000000000000000000101 t
b00000000000000000000000000001000 u
#1
b00000000000000000000000000000001 F
b00000000000000000000000000000001 I
b00000000000000000000000000000001 J
1O
b001 P
1Q
b00000000000000000000000000000001 U
b00000000000000000000000000000001 V
b00000000000100000000100000010011 W
0X
b0010011 \
b10011000000000 a
b0010011 b
b00001 d
b10000 e
b00000000000000000000000000000001 h
b00000000000000000000000000000001 i
0l
#2
b00000000000000000000000000000001 6
b00000000000000000000000000000101 F
b00000000000000000000000000001000 G
b00000000000000000000000000000100 S
b00000000000000000000000000001000 T
b00000000000000000000000000000101 U
b00000000000100000000010010010011 W
b01001 e
b00000100 j
1l
#3
0l
#4
b00000000000000000000000000000001 /
b00000000000000000000000100000111 F
b00000000000000000000000000001100 G
b00000000000000000000000011111111 I
b00000000000000000000000011111111 J
b00000000000000000000000000001000 S
b00000000000000000000000000001100 T
b00000000000000000000000100000111 U
b00000000000000000000000011111111 V
b00001111111100000000100100010011 W
b0000111 ^
b11111 d
b10010 e
b00000000000000000000000011111111 h
b00000000000000000000000011111111 i
b00001000 j
1l
#5
0l
#6
b00000000000000000000000011111111 8
b00000000000000000000000000001101 F
b00000000000000000000000000010000 G
b00000000000000000000000000000001 I
b00000000000000000000000000000001 J
b00000000000000000000000000001100 S
b00000000000000000000000000010000 T
b00000000000000000000000000001101 U
b00000000000000000000000000000001 V
b00000000000100000000100110010011 W
b0000000 ^
b00001 d
b10011 e
b00000000000000000000000000000001 h
b00000000000000000000000000000001 i
b00001100 j
1l
#7
0l
#8
b00000000000000000000000000000001 9
b00000000000000000000000000010001 F
b00000000000000000000000000010100 G
b00000000000000000000000000010000 S
b00000000000000000000000000010100 T
b00000000000000000000000000010001 U
b00000000000100000000101000010011 W
b10100 e
b00010000 j
1l
#9
0l
#10
b00000000000000000000000000000001 :
b00000000000000000000000000010100 F
b00000000000000000000000000011000 G
b00000000000000000000000000000000 I
b00000000000000000000000000000000 J
b00000000000000000000000000010100 S
b00000000000000000000000000011000 T
b00000000000000000000000000010100 U
b00000000000000000000000000000000 V
b00000000000000000000001010010011 W
1X
b00000 d
b00101 e
b00000000000000000000000000000000 h
b00000000000000000000000000000000 i
b00010100 j
1l
#11
0l
#12
b00000000000000000000000001111000 F
b00000000000000000000000000011100 G
b001 N
0O
b100 P
0Q
b00000000000000000000000000011000 S
b00000000000000000000000000011100 T
b00000000000000000000000001111000 U
b00000000000000000000000001100000 V
b00000110000000101001000001100011 W
b011 Y
1Z
b1100011 \
b001 ]
b0000011 ^
b10 _
b011 `
b01000000101100 a
b1100011 b
b00101 c
b00000 e
b00011000 j
1l
#13
0l
#14
b00000000000000000000000000011101 F
b00000000000000000000000000100000 G
b101 N
1O
b001 P
1Q
b00000000000000000000000000011100 S
b00000000000000000000000000100000 T
b00000000000000000000000000011101 U
b00000000000000000000000000000001 V
b00000000000110000101011000010011 W
b000 Y
0Z
b0010011 \
b101 ]
b0000000 ^
b00 _
b000 `
b10011000000000 a
b0010011 b
b10000 c
b00001 d
b01100 e
b00000000000000000000000000000001 f
b00000000000000000000000000000001 h
b00011100 j
1l
#15
0l
#16
b00000000000000000000000000100001 F
b00000000000000000000000000100100 G
b111 N
b00000000000000000000000000100000 S
b00000000000000000000000000100100 T
b00000000000000000000000000100001 U
b00000000000101100111011000010011 W
b111 ]
b01100 c
b00000000000000000000000000000000 f
b00100000 j
1l
#17
0l
#18
b00000000000000000000000000100110 F
b00000000000000000000000000101000 G
b101 N
b00000000000000000000000000100100 S
b00000000000000000000000000101000 T
b00000000000000000000000000100110 U
b00000000000000000000000000000010 V
b00000000001010000101011010010011 W
b101 ]
b10000 c
b00010 d
b01101 e
b00000000000000000000000000000001 f
b00000000000000000000000000000010 h
b00100100 j
1l
#19
0l
#20
b00000000000000000000000000101001 F
b00000000000000000000000000101100 G
b111 N
b00000000000000000000000000101000 S
b00000000000000000000000000101100 T
b00000000000000000000000000101001 U
b00000000000000000000000000000001 V
b00000000000101101111011010010011 W
b111 ]
b01101 c
b00001 d
b00000000000000000000000000000000 f
b00000000000000000000000000000001 h
b00101000 j
1l
#21
0l
#22
b00000000000000000000000000101111 F
b00000000000000000000000000110000 G
b101 N
b00000000000000000000000000101100 S
b00000000000000000000000000110000 T
b00000000000000000000000000101111 U
b00000000000000000000000000000011 V
b00000000001110000101011100010011 W
b101 ]
b10000 c
b00011 d
b01110 e
b00000000000000000000000000000001 f
b00000000000000000000000000000011 h
b00101100 j
1l
#23
0l
#24
b00000000000000000000000000110001 F
b00000000000000000000000000110100 G
b111 N
b00000000000000000000000000110000 S
b00000000000000000000000000110100 T
b00000000000000000000000000110001 U
b00000000000000000000000000000001 V
b00000000000101110111011100010011 W
b111 ]
b01110 c
b00001 d
b00000000000000000000000000000000 f
b00000000000000000000000000000001 h
b00110000 j
1l
#25
0l
#26
b00000000000000000000000000111011 F
b00000000000000000000000000111000 G
b101 N
b00000000000000000000000000110100 S
b00000000000000000000000000111000 T
b00000000000000000000000000111011 U
b00000000000000000000000000000111 V
b00000000011110000101011110010011 W
b101 ]
b10000 c
b00111 d
b01111 e
b00000000000000000000000000000001 f
b00000000000000000000000000000111 h
b00110100 j
1l
#27
0l
#28
b00000000000000000000000000111001 F
b00000000000000000000000000111100 G
b111 N
b00000000000000000000000000111000 S
b00000000000000000000000000111100 T
b00000000000000000000000000111001 U
b00000000000000000000000000000001 V
b00000000000101111111011110010011 W
b111 ]
b01111 c
b00001 d
b00000000000000000000000000000000 f
b00000000000000000000000000000001 h
b00111000 j
1l
#29
0l
#30
b00000000000000000000000000111100 F
b00000000000000000000000001000000 G
b100 N
0O
b000 P
b00000000000000000000000000111100 S
b00000000000000000000000001000000 T
b00000000000000000000000000111100 U
b00000000000000000000000000000000 V
b00000000111101110100011100110011 W
b0110011 \
b100 ]
b10 _
b10000000000000 a
b0110011 b
b01110 c
b01111 d
b01110 e
b00000000000000000000000000000000 h
b00111100 j
1l
#31
0l
#32
b00000000000000000000000001000000 F
b00000000000000000000000001000100 G
b00000000000000000000000001000000 S
b00000000000000000000000001000100 T
b00000000000000000000000001000000 U
b00000000111001101100011010110011 W
b01101 c
b01110 d
b01101 e
b01000000 j
1l
#33
0l
#34
b00000000000000000000000001000100 F
b00000000000000000000000001001000 G
b00000000000000000000000001000100 S
b00000000000000000000000001001000 T
b00000000000000000000000001000100 U
b00000000110101100100011000110011 W
b01100 c
b01101 d
b01100 e
b01000100 j
1l
#35
0l
#36
b00000000000000000000000001001001 F
b00000000000000000000000001001100 G
b00000000000000000000000000000010 I
b00000000000000000000000000000010 J
b010 N
1O
b001 P
b00000000000000000000000001001000 S
b00000000000000000000000001001100 T
b00000000000000000000000001001001 U
b00000000000000000000000000000001 V
b00000000000110000001100000010011 W
0X
b0010011 \
b001 ]
b00 _
b10011000000000 a
b0010011 b
b10000 c
b00001 d
b10000 e
b00000000000000000000000000000001 f
b00000000000000000000000000000001 h
b00000000000000000000000000000010 i
b01001000 j
1l
#37
0l
#38
b00000000000000000000000000000010 6
b00000000000000000000000001001100 F
b00000000000000000000000001010000 G
b110 N
0O
b000 P
b00000000000000000000000001001100 S
b00000000000000000000000001010000 T
b00000000000000000000000001001100 U
b00000000000000000000000000000000 V
b00000000110010000110100000110011 W
b0110011 \
b110 ]
b10 _
b10000000000000 a
b0110011 b
b01100 d
b00000000000000000000000000000010 f
b00000000000000000000000000000000 h
b01001100 j
1l
#39
0l
#40
b00000000000000000000000101001111 F
b00000000000000000000000001010100 G
b111 N
1O
b001 P
b00000000000000000000000001010000 S
b00000000000000000000000001010100 T
b00000000000000000000000101001111 U
b00000000000000000000000011111111 V
b00001111111110000111100000010011 W
b0010011 \
b111 ]
b0000111 ^
b00 _
b10011000000000 a
b0010011 b
b11111 d
b00000000000000000000000011111111 h
b01010000 j
1l
#41
0l
#42
b00000000000000000000000001010100 F
b00000000000000000000000001011000 G
b00000000000000000000000000000000 I
b00000000000000000000000000000000 J
b000 N
b00000000000000000000000001010100 S
b00000000000000000000000001011000 T
b00000000000000000000000001010100 U
b00000000000000000000000000000000 V
b00000000000000000000011000010011 W
1X
b000 ]
b0000000 ^
b00000 c
b00000 d
b01100 e
b00000000000000000000000000000000 f
b00000000000000000000000000000000 h
b00000000000000000000000000000000 i
b01010100 j
1l
#43
0l
#44
b00000000000000000000000001011000 F
b00000000000000000000000001011100 G
b00000000000000000000000001011000 S
b00000000000000000000000001011100 T
b00000000000000000000000001011000 U
b00000000000000000000011010010011 W
b01101 e
b01011000 j
1l
#45
0l
#46
b00000000000000000000000001011100 F
b00000000000000000000000001100000 G
b00000000000000000000000001011100 S
b00000000000000000000000001100000 T
b00000000000000000000000001011100 U
b00000000000000000000011100010011 W
b01110 e
b01011100 j
1l
#47
0l
#48
b00000000000000000000000001100000 F
b00000000000000000000000001100100 G
b00000000000000000000000001100000 S
b00000000000000000000000001100100 T
b00000000000000000000000001100000 U
b00000000000000000000011110010011 W
b01111 e
b01100000 j
1l
#49
0l
#50
b00000000000000000000000000011000 F
b00000000000000000000000000011000 G
b11111111111111111111111111111111 I
b11111111111111111111111111111111 J
1K
b001 N
0O
b100 P
0Q
b00000000000000000000000001100100 S
b00000000000000000000000001101000 T
b00000000000000000000000000011000 U
b11111111111111111111111110110100 V
b11111010100100000001101011100011 W
0X
b011 Y
1Z
b1100011 \
b001 ]
b1111101 ^
b11 _
b011 `
b01000000101100 a
b1100011 b
b01001 d
b10101 e
b00000000000000000000000000000001 g
b00000000000000000000000000000001 h
b11111111111111111111111111111111 i
b01100100 j
b11111111111111111111 k
1l
#51
0l
#52
b00000000000000000000000001111000 F
b00000000000000000000000000011100 G
b00000000000000000000000000000000 I
b00000000000000000000000000000000 J
0K
b00000000000000000000000000011000 S
b00000000000000000000000000011100 T
b00000000000000000000000001111000 U
b00000000000000000000000001100000 V
b00000110000000101001000001100011 W
1X
b0000011 ^
b10 _
b00101 c
b00000 d
b00000 e
b00000000000000000000000000000000 g
b00000000000000000000000000000000 h
b00000000000000000000000000000000 i
b00011000 j
b00000000000000000000 k
1l
#53
0l
#54
b00000000000000000000000000011101 F
b00000000000000000000000000100000 G
b00000000000000000000000000000001 I
b00000000000000000000000000000001 J
b101 N
1O
b001 P
1Q
b00000000000000000000000000011100 S
b00000000000000000000000000100000 T
b00000000000000000000000000011101 U
b00000000000000000000000000000001 V
b00000000000110000101011000010011 W
0X
b000 Y
0Z
b0010011 \
b101 ]
b0000000 ^
b00 _
b000 `
b10011000000000 a
b0010011 b
b10000 c
b00001 d
b01100 e
b00000000000000000000000000000010 f
b00000000000000000000000000000001 h
b00000000000000000000000000000001 i
b00011100 j
1l
#55
0l
#56
b00000000000000000000000000000001 2
b00000000000000000000000000100001 F
b00000000000000000000000000100100 G
b111 N
b00000000000000000000000000100000 S
b00000000000000000000000000100100 T
b00000000000000000000000000100001 U
b00000000000101100111011000010011 W
b111 ]
b01100 c
b00000000000000000000000000000001 f
b00100000 j
1l
#57
0l
#58
b00000000000000000000000000100110 F
b00000000000000000000000000101000 G
b00000000000000000000000000000000 I
b00000000000000000000000000000000 J
b101 N
b00000000000000000000000000100100 S
b00000000000000000000000000101000 T
b00000000000000000000000000100110 U
b00000000000000000000000000000010 V
b00000000001010000101011010010011 W
1X
b101 ]
b10000 c
b00010 d
b01101 e
b00000000000000000000000000000010 f
b00000000000000000000000000000010 h
b00000000000000000000000000000000 i
b00100100 j
1l
#59
0l
#60
b00000000000000000000000000101001 F
b00000000000000000000000000101100 G
b111 N
b00000000000000000000000000101000 S
b00000000000000000000000000101100 T
b00000000000000000000000000101001 U
b00000000000000000000000000000001 V
b00000000000101101111011010010011 W
b111 ]
b01101 c
b00001 d
b00000000000000000000000000000000 f
b00000000000000000000000000000001 h
b00101000 j
1l
#61
0l
#62
b00000000000000000000000000101111 F
b00000000000000000000000000110000 G
b101 N
b00000000000000000000000000101100 S
b00000000000000000000000000110000 T
b00000000000000000000000000101111 U
b00000000000000000000000000000011 V
b00000000001110000101011100010011 W
b101 ]
b10000 c
b00011 d
b01110 e
b00000000000000000000000000000010 f
b00000000000000000000000000000011 h
b00101100 j
1l
#63
0l
#64
b00000000000000000000000000110001 F
b00000000000000000000000000110100 G
b111 N
b00000000000000000000000000110000 S
b00000000000000000000000000110100 T
b00000000000000000000000000110001 U
b00000000000000000000000000000001 V
b00000000000101110111011100010011 W
b111 ]
b01110 c
b00001 d
b00000000000000000000000000000000 f
b00000000000000000000000000000001 h
b00110000 j
1l
#65
0l
#66
b00000000000000000000000000111011 F
b00000000000000000000000000111000 G
b101 N
b00000000000000000000000000110100 S
b00000000000000000000000000111000 T
b00000000000000000000000000111011 U
b00000000000000000000000000000111 V
b00000000011110000101011110010011 W
b101 ]
b10000 c
b00111 d
b01111 e
b00000000000000000000000000000010 f
b00000000000000000000000000000111 h
b00110100 j
1l
#67
0l
#68
b00000000000000000000000000111001 F
b00000000000000000000000000111100 G
b111 N
b00000000000000000000000000111000 S
b00000000000000000000000000111100 T
b00000000000000000000000000111001 U
b00000000000000000000000000000001 V
b00000000000101111111011110010011 W
b111 ]
b01111 c
b00001 d
b00000000000000000000000000000000 f
b00000000000000000000000000000001 h
b00111000 j
1l
#69
0l
#70
b00000000000000000000000000111100 F
b00000000000000000000000001000000 G
b100 N
0O
b000 P
b00000000000000000000000000111100 S
b00000000000000000000000001000000 T
b00000000000000000000000000111100 U
b00000000000000000000000000000000 V
b00000000111101110100011100110011 W
b0110011 \
b100 ]
b10 _
b10000000000000 a
b0110011 b
b01110 c
b01111 d
b01110 e
b00000000000000000000000000000000 h
b00111100 j
1l
#71
0l
#72
b00000000000000000000000001000000 F
b00000000000000000000000001000100 G
b00000000000000000000000001000000 S
b00000000000000000000000001000100 T
b00000000000000000000000001000000 U
b00000000111001101100011010110011 W
b01101 c
b01110 d
b01101 e
b01000000 j
1l
#73
0l
#74
b00000000000000000000000001000100 F
b00000000000000000000000001001000 G
b00000000000000000000000000000001 I
b00000000000000000000000000000001 J
b00000000000000000000000001000100 S
b00000000000000000000000001001000 T
b00000000000000000000000001000100 U
b00000000110101100100011000110011 W
0X
b01100 c
b01101 d
b01100 e
b00000000000000000000000000000001 f
b00000000000000000000000000000001 i
b01000100 j
1l
#75
0l
#76
b00000000000000000000000001001001 F
b00000000000000000000000001001100 G
b00000000000000000000000000000100 I
b00000000000000000000000000000100 J
b010 N
1O
b001 P
b00000000000000000000000001001000 S
b00000000000000000000000001001100 T
b00000000000000000000000001001001 U
b00000000000000000000000000000001 V
b00000000000110000001100000010011 W
b0010011 \
b001 ]
b00 _
b10011000000000 a
b0010011 b
b10000 c
b00001 d
b10000 e
b00000000000000000000000000000010 f
b00000000000000000000000000000001 h
b00000000000000000000000000000100 i
b01001000 j
1l
#77
0l
#78
b00000000000000000000000000000100 6
b00000000000000000000000001001100 F
b00000000000000000000000001010000 G
b00000000000000000000000000000101 I
b00000000000000000000000000000101 J
b110 N
0O
b000 P
b00000000000000000000000001001100 S
b00000000000000000000000001010000 T
b00000000000000000000000001001100 U
b00000000000000000000000000000000 V
b00000000110010000110100000110011 W
b0110011 \
b110 ]
b10 _
b10000000000000 a
b0110011 b
b01100 d
b00000000000000000000000000000100 f
b00000000000000000000000000000001 g
b00000000000000000000000000000101 i
b01001100 j
1l
#79
0l
#80
b00000000000000000000000000000101 6
b00000000000000000000000101001111 F
b00000000000000000000000001010100 G
b111 N
1O
b001 P
b00000000000000000000000001010000 S
b00000000000000000000000001010100 T
b00000000000000000000000101001111 U
b00000000000000000000000011111111 V
b00001111111110000111100000010011 W
b0010011 \
b111 ]
b0000111 ^
b00 _
b10011000000000 a
b0010011 b
b11111 d
b00000000000000000000000000000101 f
b00000000000000000000000000000000 g
b00000000000000000000000011111111 h
b01010000 j
1l
#81
0l
#82
b00000000000000000000000001010100 F
b00000000000000000000000001011000 G
b00000000000000000000000000000000 I
b00000000000000000000000000000000 J
b000 N
b00000000000000000000000001010100 S
b00000000000000000000000001011000 T
b00000000000000000000000001010100 U
b00000000000000000000000000000000 V
b00000000000000000000011000010011 W
1X
b000 ]
b0000000 ^
b00000 c
b00000 d
b01100 e
b00000000000000000000000000000000 f
b00000000000000000000000000000000 h
b00000000000000000000000000000000 i
b01010100 j
1l
#83
0l
#84
b00000000000000000000000000000000 2
b00000000000000000000000001011000 F
b00000000000000000000000001011100 G
b00000000000000000000000001011000 S
b00000000000000000000000001011100 T
b00000000000000000000000001011000 U
b00000000000000000000011010010011 W
b01101 e
b01011000 j
1l
#85
0l
#86
b00000000000000000000000001011100 F
b00000000000000000000000001100000 G
b00000000000000000000000001011100 S
b00000000000000000000000001100000 T
b00000000000000000000000001011100 U
b00000000000000000000011100010011 W
b01110 e
b01011100 j
1l
#87
0l
#88
b00000000000000000000000001100000 F
b00000000000000000000000001100100 G
b00000000000000000000000001100000 S
b00000000000000000000000001100100 T
b00000000000000000000000001100000 U
b00000000000000000000011110010011 W
b01111 e
b01100000 j
1l
#89
0l
#90
b00000000000000000000000000011000 F
b00000000000000000000000000011000 G
b11111111111111111111111111111111 I
b11111111111111111111111111111111 J
1K
b001 N
0O
b100 P
0Q
b00000000000000000000000001100100 S
b00000000000000000000000001101000 T
b00000000000000000000000000011000 U
b11111111111111111111111110110100 V
b11111010100100000001101011100011 W
0X
b011 Y
1Z
b1100011 \
b001 ]
b1111101 ^
b11 _
b011 `
b01000000101100 a
b1100011 b
b01001 d
b10101 e
b00000000000000000000000000000001 g
b00000000000000000000000000000001 h
b11111111111111111111111111111111 i
b01100100 j
b11111111111111111111 k
1l
#91
0l
#92
b00000000000000000000000001111000 F
b00000000000000000000000000011100 G
b00000000000000000000000000000000 I
b00000000000000000000000000000000 J
0K
b00000000000000000000000000011000 S
b00000000000000000000000000011100 T
b00000000000000000000000001111000 U
b00000000000000000000000001100000 V
b00000110000000101001000001100011 W
1X
b0000011 ^
b10 _
b00101 c
b00000 d
b00000 e
b00000000000000000000000000000000 g
b00000000000000000000000000000000 h
b00000000000000000000000000000000 i
b00011000 j
b00000000000000000000 k
1l
#93
0l
#94
b00000000000000000000000000011101 F
b00000000000000000000000000100000 G
b00000000000000000000000000000010 I
b00000000000000000000000000000010 J
b101 N
1O
b001 P
1Q
b00000000000000000000000000011100 S
b00000000000000000000000000100000 T
b00000000000000000000000000011101 U
b00000000000000000000000000000001 V
b00000000000110000101011000010011 W
0X
b000 Y
0Z
b0010011 \
b101 ]
b0000000 ^
b00 _
b000 `
b10011000000000 a
b0010011 b
b10000 c
b00001 d
b01100 e
b00000000000000000000000000000101 f
b00000000000000000000000000000001 h
b00000000000000000000000000000010 i
b00011100 j
1l
#95
0l
