Individual Components/ImmExtend/signextend.vcd
$version Generated by VerilatedVcd $end
$date Sun Nov 19 16:08:08 2023 $end
$timescale 1ps $end

 $scope module TOP $end
  $var wire  1 # clk $end
  $var wire 32 $ code [31:0] $end
  $var wire 32 ' ignorewarning [31:0] $end
  $var wire 32 & immop [31:0] $end
  $var wire  1 % immscr $end
  $scope module signextend $end
   $var wire  1 # clk $end
   $var wire 32 $ code [31:0] $end
   $var wire 20 ( extend [19:0] $end
   $var wire 32 ' ignorewarning [31:0] $end
   $var wire 32 & immop [31:0] $end
   $var wire  1 % immscr $end
  $upscope $end
 $upscope $end
$enddefinitions $end


#0
1#
b11111111111100000000000000000000 $
0%
b00000000000000000000000000000000 &
b00000000000000000000000000000000 '
b00000000000000000000 (
#1
0#
b11111111111100000000000000000000 '
#2
1#
b00000000000000000000111111111111 &
b11111111111111111111 (
#3
0#
#4
1#
b11111111111111111111111111111111 &
#5
0#
#6
1#
#7
0#
#8
1#
#9
0#
#10
1#
#11
0#
#12
1#
#13
0#
#14
1#
#15
0#
#16
1#
#17
0#
#18
1#
#19
0#
#20
1#
#21
0#
#22
1#
b00000000111111111111111111111111 $
#23
0#
b00000000111111111111111111111111 '
#24
1#
b11111111111111111111000000001111 &
b00000000000000000000 (
#25
0#
#26
1#
b00000000000000000000000000001111 &
#27
0#
#28
1#
#29
0#
#30
1#
#31
0#
#32
1#
#33
0#
#34
1#
#35
0#
#36
1#
#37
0#
#38
1#
#39
0#
#40
1#
#41
0#
#42
1#
b11110000111100000000000000000000 $
#43
0#
b11110000111100000000000000000000 '
#44
1#
b00000000000000000000111100001111 &
b11111111111111111111 (
#45
0#
#46
1#
b11111111111111111111111100001111 &
