F1_Test/top.vcd
$version Generated by VerilatedVcd $end
$date Thu Dec 14 15:26:27 2023 $end
$timescale 1ps $end

 $scope module TOP $end
  $var wire 32 m A0 [31:0] $end
  $var wire  1 l T0 $end
  $var wire  1 j clk $end
  $var wire  1 k rst $end
  $scope module Top $end
   $var wire 32 m A0 [31:0] $end
   $var wire  3 L ALUCTRL [2:0] $end
   $var wire  1 M ALUSRC $end
   $var wire  1 Q ATYPE $end
   $var wire  1 W EQ $end
   $var wire 32 U IMMOP [31:0] $end
   $var wire  3 N IMMSRC [2:0] $end
   $var wire 32 V INSTRUCT [31:0] $end
   $var wire  1 P JUMPSRC $end
   $var wire  1 K MEMWRITE $end
   $var wire 32 S PCPLUS4 [31:0] $end
   $var wire  1 I PCSRC $end
   $var wire 32 D PCTARGET_TO_PC [31:0] $end
   $var wire 32 T PCTARGET_TO_RMAD [31:0] $end
   $var wire 32 R PC_OUT [31:0] $end
   $var wire  1 O REGWRITE $end
   $var wire  2 J RESULTSRC [1:0] $end
   $var wire  1 l T0 $end
   $var wire 32 n WIDTH [31:0] $end
   $var wire  1 j clk $end
   $var wire  1 k rst $end
   $scope module CPU_CU $end
    $var wire  3 X ALUOp [2:0] $end
    $var wire 32 n WIDTH [31:0] $end
    $var wire  1 Q a_type $end
    $var wire  3 L alu_ctrl [2:0] $end
    $var wire  1 M alu_src $end
    $var wire  1 Y branch $end
    $var wire  1 W eq $end
    $var wire  3 N imm_src [2:0] $end
    $var wire 32 V instr [31:0] $end
    $var wire  1 Z jump $end
    $var wire  1 P jump_src $end
    $var wire  1 K mem_write $end
    $var wire  1 I pc_src $end
    $var wire  1 O reg_write $end
    $var wire  2 J result_src [1:0] $end
    $scope module ALU_Decoder $end
     $var wire 32 o ALUOP_WIDTH [31:0] $end
     $var wire 32 o F3_WIDTH [31:0] $end
     $var wire 32 p F7_WIDTH [31:0] $end
     $var wire 32 p OP_WIDTH [31:0] $end
     $var wire  1 Q a_type $end
     $var wire  3 L alu_ctrl [2:0] $end
     $var wire  3 X alu_op [2:0] $end
     $var wire  3 \ funct3 [2:0] $end
     $var wire  7 ] funct7 [6:0] $end
     $var wire  7 [ op [6:0] $end
     $scope module unnamedblk1 $end
      $var wire  3 _ i_type [2:0] $end
      $var wire  2 ^ test [1:0] $end
     $upscope $end
    $upscope $end
    $scope module Main_Decoder $end
     $var wire 32 q WIDTH_2 [31:0] $end
     $var wire 32 o WIDTH_3 [31:0] $end
     $var wire 32 p WIDTH_OP [31:0] $end
     $var wire  3 X alu_op [2:0] $end
     $var wire  1 M alu_src $end
     $var wire  1 Y branch $end
     $var wire 14 ` command_code [13:0] $end
     $var wire  3 N imm_src [2:0] $end
     $var wire  1 Z jump $end
     $var wire  1 P jump_src $end
     $var wire  1 K mem_write $end
     $var wire  7 [ op [6:0] $end
     $var wire  1 O reg_write $end
     $var wire  2 J result_src [1:0] $end
     $scope module unnamedblk1 $end
      $var wire  7 a opcode [6:0] $end
     $upscope $end
    $upscope $end
   $upscope $end
   $scope module CPU_PC $end
    $var wire 32 U ImmOp [31:0] $end
    $var wire 32 S PC_Plus4 [31:0] $end
    $var wire 32 D PC_TargetI [31:0] $end
    $var wire 32 T PC_TargetO [31:0] $end
    $var wire 32 R PC_out [31:0] $end
    $var wire  1 I PCsrc $end
    $var wire 32 n WIDTH [31:0] $end
    $var wire  1 j clk $end
    $var wire 32 E next_PC [31:0] $end
    $var wire  1 k rst $end
    $scope module PC_Reg $end
     $var wire 32 R PC [31:0] $end
     $var wire 32 n WIDTH [31:0] $end
     $var wire  1 j clk $end
     $var wire 32 E next_PC [31:0] $end
     $var wire  1 k rst $end
    $upscope $end
    $scope module PC_mux $end
     $var wire 32 n WIDTH [31:0] $end
     $var wire 32 S i0 [31:0] $end
     $var wire 32 D i1 [31:0] $end
     $var wire 32 E out [31:0] $end
     $var wire  1 I s $end
    $upscope $end
   $upscope $end
   $scope module CPU_RMAD $end
    $var wire  5 b A1 [4:0] $end
    $var wire  5 c A2 [4:0] $end
    $var wire  5 d A3 [4:0] $end
    $var wire 32 r ADDRESS_WIDTH [31:0] $end
    $var wire  3 L ALUControl [2:0] $end
    $var wire 32 h ALUResult [31:0] $end
    $var wire  1 M ALUSrc $end
    $var wire  1 Q AddrType $end
    $var wire 32 n DATA_WIDTH [31:0] $end
    $var wire 32 U ImmExt [31:0] $end
    $var wire  1 P JumpSrc $end
    $var wire  1 K MemWrite $end
    $var wire 32 S PCPlus4 [31:0] $end
    $var wire 32 T PCtargetIn [31:0] $end
    $var wire 32 D PCtargetOut [31:0] $end
    $var wire 32 f RD2 [31:0] $end
    $var wire 32 F ReadData [31:0] $end
    $var wire  1 O RegWrite $end
    $var wire 32 G Result [31:0] $end
    $var wire  2 J ResultSrc [1:0] $end
    $var wire 32 e SrcA [31:0] $end
    $var wire 32 g SrcB [31:0] $end
    $var wire  1 W Zero $end
    $var wire 32 m a0 [31:0] $end
    $var wire  1 j clk $end
    $var wire 32 # ra [31:0] $end
    $var wire  1 l trigger $end
    $scope module Arithmetic_logic_unit $end
     $var wire 32 h ALU_Result [31:0] $end
     $var wire  3 L ALUctrl [2:0] $end
     $var wire 32 e ALUop1 [31:0] $end
     $var wire 32 g ALUop2 [31:0] $end
     $var wire 32 h ALUout [31:0] $end
     $var wire 32 n DATA_WIDTH [31:0] $end
     $var wire  1 W Zero $end
    $upscope $end
    $scope module DataMem $end
     $var wire 32 h A [31:0] $end
     $var wire 32 n ADDRESS_WIDTH [31:0] $end
     $var wire  1 Q ADTP $end
     $var wire 32 n DATA_WIDTH [31:0] $end
     $var wire 32 F RD [31:0] $end
     $var wire 32 f WD [31:0] $end
     $var wire  1 K WE $end
     $var wire  1 j clk $end
    $upscope $end
    $scope module FirstMux $end
     $var wire 32 n DATA_WIDTH [31:0] $end
     $var wire 32 f in0 [31:0] $end
     $var wire 32 U in1 [31:0] $end
     $var wire 32 g out [31:0] $end
     $var wire  1 M select $end
    $upscope $end
    $scope module Register $end
     $var wire  5 b A1 [4:0] $end
     $var wire  5 c A2 [4:0] $end
     $var wire  5 d A3 [4:0] $end
     $var wire 32 r ADDRESS_WIDTH [31:0] $end
     $var wire 32 n DATA_WIDTH [31:0] $end
     $var wire 32 e RD1 [31:0] $end
     $var wire 32 f RD2 [31:0] $end
     $var wire 32 $ Reg_File[0] [31:0] $end
     $var wire 32 . Reg_File[10] [31:0] $end
     $var wire 32 / Reg_File[11] [31:0] $end
     $var wire 32 0 Reg_File[12] [31:0] $end
     $var wire 32 1 Reg_File[13] [31:0] $end
     $var wire 32 2 Reg_File[14] [31:0] $end
     $var wire 32 3 Reg_File[15] [31:0] $end
     $var wire 32 4 Reg_File[16] [31:0] $end
     $var wire 32 5 Reg_File[17] [31:0] $end
     $var wire 32 6 Reg_File[18] [31:0] $end
     $var wire 32 7 Reg_File[19] [31:0] $end
     $var wire 32 % Reg_File[1] [31:0] $end
     $var wire 32 8 Reg_File[20] [31:0] $end
     $var wire 32 9 Reg_File[21] [31:0] $end
     $var wire 32 : Reg_File[22] [31:0] $end
     $var wire 32 ; Reg_File[23] [31:0] $end
     $var wire 32 < Reg_File[24] [31:0] $end
     $var wire 32 = Reg_File[25] [31:0] $end
     $var wire 32 > Reg_File[26] [31:0] $end
     $var wire 32 ? Reg_File[27] [31:0] $end
     $var wire 32 @ Reg_File[28] [31:0] $end
     $var wire 32 A Reg_File[29] [31:0] $end
     $var wire 32 & Reg_File[2] [31:0] $end
     $var wire 32 B Reg_File[30] [31:0] $end
     $var wire 32 C Reg_File[31] [31:0] $end
     $var wire 32 ' Reg_File[3] [31:0] $end
     $var wire 32 ( Reg_File[4] [31:0] $end
     $var wire 32 ) Reg_File[5] [31:0] $end
     $var wire 32 * Reg_File[6] [31:0] $end
     $var wire 32 + Reg_File[7] [31:0] $end
     $var wire 32 , Reg_File[8] [31:0] $end
     $var wire 32 - Reg_File[9] [31:0] $end
     $var wire 32 G WD3 [31:0] $end
     $var wire  1 O WE3 $end
     $var wire 32 m a0 [31:0] $end
     $var wire  1 j clk $end
     $var wire 32 # ra [31:0] $end
     $var wire  1 l trigger $end
    $upscope $end
    $scope module SecondMux $end
     $var wire 32 n DATA_WIDTH [31:0] $end
     $var wire 32 T in0 [31:0] $end
     $var wire 32 # in1 [31:0] $end
     $var wire 32 D out [31:0] $end
     $var wire  1 P select $end
    $upscope $end
    $scope module ThreeInputMux $end
     $var wire 32 n DATA_WIDTH [31:0] $end
     $var wire 32 H MuxInput [31:0] $end
     $var wire 32 h in0 [31:0] $end
     $var wire 32 F in1 [31:0] $end
     $var wire 32 S in2 [31:0] $end
     $var wire 32 G out [31:0] $end
     $var wire  2 J select [1:0] $end
    $upscope $end
   $upscope $end
   $scope module CPU_ROM $end
    $var wire 32 n ADDRESS_WIDTH [31:0] $end
    $var wire 32 n DATA_WIDTH [31:0] $end
    $var wire 32 s READ_WIDTH [31:0] $end
    $var wire 32 R addr [31:0] $end
    $var wire 32 V instr [31:0] $end
   $upscope $end
   $scope module CPU_SIGNEXTEND $end
    $var wire 32 V code [31:0] $end
    $var wire 20 i extend [19:0] $end
    $var wire 32 U immop [31:0] $end
    $var wire  3 N immscr [2:0] $end
   $upscope $end
  $upscope $end
 $upscope $end
$enddefinitions $end


#0
b00000000000000000000000000000000 #
b00000000000000000000000000000000 $
b00000000000000000000000000000000 %
b00000000000000000000000000000000 &
b00000000000000000000000000000000 '
b00000000000000000000000000000000 (
b00000000000000000000000000000000 )
b00000000000000000000000000000000 *
b00000000000000000000000000000000 +
b00000000000000000000000000000000 ,
b00000000000000000000000000000000 -
b00000000000000000000000000000000 .
b00000000000000000000000000000000 /
b00000000000000000000000000000000 0
b00000000000000000000000000000000 1
b00000000000000000000000000000000 2
b00000000000000000000000000000000 3
b00000000000000000000000000000000 4
b00000000000000000000000000000000 5
b00000000000000000000000000000000 6
b00000000000000000000000000000000 7
b00000000000000000000000000000000 8
b00000000000000000000000000000000 9
b00000000000000000000000000000000 :
b00000000000000000000000000000000 ;
b00000000000000000000000000000000 <
b00000000000000000000000000000000 =
b00000000000000000000000000000000 >
b00000000000000000000000000000000 ?
b00000000000000000000000000000000 @
b00000000000000000000000000000000 A
b00000000000000000000000000000000 B
b00000000000000000000000000000000 C
b00000000000000000000000000000000 D
b00000000000000000000000000000100 E
b00000000000000000000000000000000 F
b00000000000000000000000000000000 G
b00000000000000000000000000000000 H
0I
b00 J
0K
b000 L
0M
b000 N
0O
0P
0Q
b00000000000000000000000000000000 R
b00000000000000000000000000000100 S
b00000000000000000000000000000000 T
b00000000000000000000000000000000 U
b00000000000000000000000000000000 V
1W
b000 X
0Y
0Z
b0000000 [
b000 \
b0000000 ]
b00 ^
b000 _
b00000000000000 `
b0000000 a
b00000 b
b00000 c
b00000 d
b00000000000000000000000000000000 e
b00000000000000000000000000000000 f
b00000000000000000000000000000000 g
b00000000000000000000000000000000 h
b00000000000000000000 i
1j
0k
0l
b00000000000000000000000000000000 m
b00000000000000000000000000100000 n
b00000000000000000000000000000011 o
b00000000000000000000000000000111 p
b00000000000000000000000000000010 q
b00000000000000000000000000000101 r
b00000000000000000000000000001000 s
#1
b00000000000000000000000000000001 D
b00000000000000000000000000000001 G
b00000000000000000000000000000001 H
1M
b001 N
1O
b00000000000000000000000000000001 T
b00000000000000000000000000000001 U
b00000000000100000000100000010011 V
0W
b0010011 [
b10011000000000 `
b0010011 a
b00001 c
b10000 d
b00000000000000000000000000000001 g
b00000000000000000000000000000001 h
0j
#2
b00000000000000000000000000000001 4
b00000000000000000000000000000101 D
b00000000000000000000000000001000 E
b00000000000000000000000000000100 R
b00000000000000000000000000001000 S
b00000000000000000000000000000101 T
b00000000000100000000010010010011 V
b01001 d
1j
#3
0j
#4
b00000000000000000000000000000001 -
b00000000000000000000000100000111 D
b00000000000000000000000000001100 E
b00000000000000000000000011111111 G
b00000000000000000000000011111111 H
b00000000000000000000000000001000 R
b00000000000000000000000000001100 S
b00000000000000000000000100000111 T
b00000000000000000000000011111111 U
b00001111111100000000100100010011 V
b0000111 ]
b11111 c
b10010 d
b00000000000000000000000011111111 g
b00000000000000000000000011111111 h
1j
#5
0j
#6
b00000000000000000000000011111111 6
b00000000000000000000000000001101 D
b00000000000000000000000000010000 E
b00000000000000000000000000000001 G
b00000000000000000000000000000001 H
b00000000000000000000000000001100 R
b00000000000000000000000000010000 S
b00000000000000000000000000001101 T
b00000000000000000000000000000001 U
b00000000000100000000100110010011 V
b0000000 ]
b00001 c
b10011 d
b00000000000000000000000000000001 g
b00000000000000000000000000000001 h
1j
#7
0j
#8
b00000000000000000000000000000001 7
b00000000000000000000000000010001 D
b00000000000000000000000000010100 E
b00000000000000000000000000010000 R
b00000000000000000000000000010100 S
b00000000000000000000000000010001 T
b00000000000100000000101000010011 V
b10100 d
1j
#9
0j
#10
b00000000000000000000000000000001 8
b00000000000000000000000000010100 D
b00000000000000000000000000011000 E
b00000000000000000000000000000000 G
b00000000000000000000000000000000 H
b00000000000000000000000000010100 R
b00000000000000000000000000011000 S
b00000000000000000000000000010100 T
b00000000000000000000000000000000 U
b00000000000000000000001010010011 V
1W
b00000 c
b00101 d
b00000000000000000000000000000000 g
b00000000000000000000000000000000 h
1j
#11
0j
#12
b00000000000000000000000001111000 D
b00000000000000000000000000011100 E
b001 L
0M
b100 N
0O
b00000000000000000000000000011000 R
b00000000000000000000000000011100 S
b00000000000000000000000001111000 T
b00000000000000000000000001100000 U
b00000110000000101001000001100011 V
b011 X
1Y
b1100011 [
b001 \
b0000011 ]
b10 ^
b011 _
b01000000101100 `
b1100011 a
b00101 b
b00000 d
1j
#13
0j
#14
b00000000000000000000000000011101 D
b00000000000000000000000000100000 E
b101 L
1M
b001 N
1O
b00000000000000000000000000011100 R
b00000000000000000000000000100000 S
b00000000000000000000000000011101 T
b00000000000000000000000000000001 U
b00000000000110000101011000010011 V
b000 X
0Y
b0010011 [
b101 \
b0000000 ]
b00 ^
b000 _
b10011000000000 `
b0010011 a
b10000 b
b00001 c
b01100 d
b00000000000000000000000000000001 e
b00000000000000000000000000000001 g
1j
#15
0j
#16
b00000000000000000000000000100001 D
b00000000000000000000000000100100 E
b111 L
b00000000000000000000000000100000 R
b00000000000000000000000000100100 S
b00000000000000000000000000100001 T
b00000000000101100111011000010011 V
b111 \
b01100 b
b00000000000000000000000000000000 e
1j
#17
0j
#18
b00000000000000000000000000100110 D
b00000000000000000000000000101000 E
b101 L
b00000000000000000000000000100100 R
b00000000000000000000000000101000 S
b00000000000000000000000000100110 T
b00000000000000000000000000000010 U
b00000000001010000101011010010011 V
b101 \
b10000 b
b00010 c
b01101 d
b00000000000000000000000000000001 e
b00000000000000000000000000000010 g
1j
#19
0j
#20
b00000000000000000000000000101001 D
b00000000000000000000000000101100 E
b111 L
b00000000000000000000000000101000 R
b00000000000000000000000000101100 S
b00000000000000000000000000101001 T
b00000000000000000000000000000001 U
b00000000000101101111011010010011 V
b111 \
b01101 b
b00001 c
b00000000000000000000000000000000 e
b00000000000000000000000000000001 g
1j
#21
0j
#22
b00000000000000000000000000101111 D
b00000000000000000000000000110000 E
b101 L
b00000000000000000000000000101100 R
b00000000000000000000000000110000 S
b00000000000000000000000000101111 T
b00000000000000000000000000000011 U
b00000000001110000101011100010011 V
b101 \
b10000 b
b00011 c
b01110 d
b00000000000000000000000000000001 e
b00000000000000000000000000000011 g
1j
#23
0j
#24
b00000000000000000000000000110001 D
b00000000000000000000000000110100 E
b111 L
b00000000000000000000000000110000 R
b00000000000000000000000000110100 S
b00000000000000000000000000110001 T
b00000000000000000000000000000001 U
b00000000000101110111011100010011 V
b111 \
b01110 b
b00001 c
b00000000000000000000000000000000 e
b00000000000000000000000000000001 g
1j
#25
0j
#26
b00000000000000000000000000111011 D
b00000000000000000000000000111000 E
b101 L
b00000000000000000000000000110100 R
b00000000000000000000000000111000 S
b00000000000000000000000000111011 T
b00000000000000000000000000000111 U
b00000000011110000101011110010011 V
b101 \
b10000 b
b00111 c
b01111 d
b00000000000000000000000000000001 e
b00000000000000000000000000000111 g
1j
#27
0j
#28
b00000000000000000000000000111001 D
b00000000000000000000000000111100 E
b111 L
b00000000000000000000000000111000 R
b00000000000000000000000000111100 S
b00000000000000000000000000111001 T
b00000000000000000000000000000001 U
b00000000000101111111011110010011 V
b111 \
b01111 b
b00001 c
b00000000000000000000000000000000 e
b00000000000000000000000000000001 g
1j
#29
0j
#30
b00000000000000000000000000111100 D
b00000000000000000000000001000000 E
b100 L
0M
b000 N
b00000000000000000000000000111100 R
b00000000000000000000000001000000 S
b00000000000000000000000000111100 T
b00000000000000000000000000000000 U
b00000000111101110100011100110011 V
b0110011 [
b100 \
b10 ^
b10000000000000 `
b0110011 a
b01110 b
b01111 c
b01110 d
b00000000000000000000000000000000 g
1j
#31
0j
#32
b00000000000000000000000001000000 D
b00000000000000000000000001000100 E
b00000000000000000000000001000000 R
b00000000000000000000000001000100 S
b00000000000000000000000001000000 T
b00000000111001101100011010110011 V
b01101 b
b01110 c
b01101 d
1j
#33
0j
#34
b00000000000000000000000001000100 D
b00000000000000000000000001001000 E
b00000000000000000000000001000100 R
b00000000000000000000000001001000 S
b00000000000000000000000001000100 T
b00000000110101100100011000110011 V
b01100 b
b01101 c
b01100 d
1j
#35
0j
#36
b00000000000000000000000001001001 D
b00000000000000000000000001001100 E
b00000000000000000000000000000010 G
b00000000000000000000000000000010 H
b010 L
1M
b001 N
b00000000000000000000000001001000 R
b00000000000000000000000001001100 S
b00000000000000000000000001001001 T
b00000000000000000000000000000001 U
b00000000000110000001100000010011 V
0W
b0010011 [
b001 \
b00 ^
b10011000000000 `
b0010011 a
b10000 b
b00001 c
b10000 d
b00000000000000000000000000000001 e
b00000000000000000000000000000001 g
b00000000000000000000000000000010 h
1j
#37
0j
#38
b00000000000000000000000000000010 4
b00000000000000000000000001001100 D
b00000000000000000000000001010000 E
b110 L
0M
b000 N
b00000000000000000000000001001100 R
b00000000000000000000000001010000 S
b00000000000000000000000001001100 T
b00000000000000000000000000000000 U
b00000000110010000110100000110011 V
b0110011 [
b110 \
b10 ^
b10000000000000 `
b0110011 a
b01100 c
b00000000000000000000000000000010 e
b00000000000000000000000000000000 g
1j
#39
0j
#40
b00000000000000000000000101001111 D
b00000000000000000000000001010100 E
b111 L
1M
b001 N
b00000000000000000000000001010000 R
b00000000000000000000000001010100 S
b00000000000000000000000101001111 T
b00000000000000000000000011111111 U
b00001111111110000111100000010011 V
b0010011 [
b111 \
b0000111 ]
b00 ^
b10011000000000 `
b0010011 a
b11111 c
b00000000000000000000000011111111 g
1j
#41
0j
#42
b00000000000000000000000001010100 D
b00000000000000000000000001011000 E
b00000000000000000000000000000000 G
b00000000000000000000000000000000 H
b000 L
b00000000000000000000000001010100 R
b00000000000000000000000001011000 S
b00000000000000000000000001010100 T
b00000000000000000000000000000000 U
b00000000000000000000011000010011 V
1W
b000 \
b0000000 ]
b00000 b
b00000 c
b01100 d
b00000000000000000000000000000000 e
b00000000000000000000000000000000 g
b00000000000000000000000000000000 h
1j
#43
0j
#44
b00000000000000000000000001011000 D
b00000000000000000000000001011100 E
b00000000000000000000000001011000 R
b00000000000000000000000001011100 S
b00000000000000000000000001011000 T
b00000000000000000000011010010011 V
b01101 d
1j
#45
0j
#46
b00000000000000000000000001011100 D
b00000000000000000000000001100000 E
b00000000000000000000000001011100 R
b00000000000000000000000001100000 S
b00000000000000000000000001011100 T
b00000000000000000000011100010011 V
b01110 d
1j
#47
0j
#48
b00000000000000000000000001100000 D
b00000000000000000000000001100100 E
b00000000000000000000000001100000 R
b00000000000000000000000001100100 S
b00000000000000000000000001100000 T
b00000000000000000000011110010011 V
b01111 d
1j
#49
0j
#50
b00000000000000000000000000011000 D
b00000000000000000000000000011000 E
b11111111111111111111111111111111 G
b11111111111111111111111111111111 H
1I
b001 L
0M
b100 N
0O
b00000000000000000000000001100100 R
b00000000000000000000000001101000 S
b00000000000000000000000000011000 T
b11111111111111111111111110110100 U
b11111010100100000001101011100011 V
0W
b011 X
1Y
b1100011 [
b001 \
b1111101 ]
b11 ^
b011 _
b01000000101100 `
b1100011 a
b01001 c
b10101 d
b00000000000000000000000000000001 f
b00000000000000000000000000000001 g
b11111111111111111111111111111111 h
b11111111111111111111 i
1j
#51
0j
#52
b00000000000000000000000001111000 D
b00000000000000000000000000011100 E
b00000000000000000000000000000000 G
b00000000000000000000000000000000 H
0I
b00000000000000000000000000011000 R
b00000000000000000000000000011100 S
b00000000000000000000000001111000 T
b00000000000000000000000001100000 U
b00000110000000101001000001100011 V
1W
b0000011 ]
b10 ^
b00101 b
b00000 c
b00000 d
b00000000000000000000000000000000 f
b00000000000000000000000000000000 g
b00000000000000000000000000000000 h
b00000000000000000000 i
1j
#53
0j
#54
b00000000000000000000000000011101 D
b00000000000000000000000000100000 E
b00000000000000000000000000000001 G
b00000000000000000000000000000001 H
b101 L
1M
b001 N
1O
b00000000000000000000000000011100 R
b00000000000000000000000000100000 S
b00000000000000000000000000011101 T
b00000000000000000000000000000001 U
b00000000000110000101011000010011 V
0W
b000 X
0Y
b0010011 [
b101 \
b0000000 ]
b00 ^
b000 _
b10011000000000 `
b0010011 a
b10000 b
b00001 c
b01100 d
b00000000000000000000000000000010 e
b00000000000000000000000000000001 g
b00000000000000000000000000000001 h
1j
#55
0j
#56
b00000000000000000000000000000001 0
b00000000000000000000000000100001 D
b00000000000000000000000000100100 E
b111 L
b00000000000000000000000000100000 R
b00000000000000000000000000100100 S
b00000000000000000000000000100001 T
b00000000000101100111011000010011 V
b111 \
b01100 b
b00000000000000000000000000000001 e
1j
#57
0j
#58
b00000000000000000000000000100110 D
b00000000000000000000000000101000 E
b00000000000000000000000000000000 G
b00000000000000000000000000000000 H
b101 L
b00000000000000000000000000100100 R
b00000000000000000000000000101000 S
b00000000000000000000000000100110 T
b00000000000000000000000000000010 U
b00000000001010000101011010010011 V
1W
b101 \
b10000 b
b00010 c
b01101 d
b00000000000000000000000000000010 e
b00000000000000000000000000000010 g
b00000000000000000000000000000000 h
1j
#59
0j
#60
b00000000000000000000000000101001 D
b00000000000000000000000000101100 E
b111 L
b00000000000000000000000000101000 R
b00000000000000000000000000101100 S
b00000000000000000000000000101001 T
b00000000000000000000000000000001 U
b00000000000101101111011010010011 V
b111 \
b01101 b
b00001 c
b00000000000000000000000000000000 e
b00000000000000000000000000000001 g
1j
#61
0j
#62
b00000000000000000000000000101111 D
b00000000000000000000000000110000 E
b101 L
b00000000000000000000000000101100 R
b00000000000000000000000000110000 S
b00000000000000000000000000101111 T
b00000000000000000000000000000011 U
b00000000001110000101011100010011 V
b101 \
b10000 b
b00011 c
b01110 d
b00000000000000000000000000000010 e
b00000000000000000000000000000011 g
1j
#63
0j
#64
b00000000000000000000000000110001 D
b00000000000000000000000000110100 E
b111 L
b00000000000000000000000000110000 R
b00000000000000000000000000110100 S
b00000000000000000000000000110001 T
b00000000000000000000000000000001 U
b00000000000101110111011100010011 V
b111 \
b01110 b
b00001 c
b00000000000000000000000000000000 e
b00000000000000000000000000000001 g
1j
#65
0j
#66
b00000000000000000000000000111011 D
b00000000000000000000000000111000 E
b101 L
b00000000000000000000000000110100 R
b00000000000000000000000000111000 S
b00000000000000000000000000111011 T
b00000000000000000000000000000111 U
b00000000011110000101011110010011 V
b101 \
b10000 b
b00111 c
b01111 d
b00000000000000000000000000000010 e
b00000000000000000000000000000111 g
1j
#67
0j
#68
b00000000000000000000000000111001 D
b00000000000000000000000000111100 E
b111 L
b00000000000000000000000000111000 R
b00000000000000000000000000111100 S
b00000000000000000000000000111001 T
b00000000000000000000000000000001 U
b00000000000101111111011110010011 V
b111 \
b01111 b
b00001 c
b00000000000000000000000000000000 e
b00000000000000000000000000000001 g
1j
#69
0j
#70
b00000000000000000000000000111100 D
b00000000000000000000000001000000 E
b100 L
0M
b000 N
b00000000000000000000000000111100 R
b00000000000000000000000001000000 S
b00000000000000000000000000111100 T
b00000000000000000000000000000000 U
b00000000111101110100011100110011 V
b0110011 [
b100 \
b10 ^
b10000000000000 `
b0110011 a
b01110 b
b01111 c
b01110 d
b00000000000000000000000000000000 g
1j
#71
0j
#72
b00000000000000000000000001000000 D
b00000000000000000000000001000100 E
b00000000000000000000000001000000 R
b00000000000000000000000001000100 S
b00000000000000000000000001000000 T
b00000000111001101100011010110011 V
b01101 b
b01110 c
b01101 d
1j
#73
0j
#74
b00000000000000000000000001000100 D
b00000000000000000000000001001000 E
b00000000000000000000000000000001 G
b00000000000000000000000000000001 H
b00000000000000000000000001000100 R
b00000000000000000000000001001000 S
b00000000000000000000000001000100 T
b00000000110101100100011000110011 V
0W
b01100 b
b01101 c
b01100 d
b00000000000000000000000000000001 e
b00000000000000000000000000000001 h
1j
#75
0j
#76
b00000000000000000000000001001001 D
b00000000000000000000000001001100 E
b00000000000000000000000000000100 G
b00000000000000000000000000000100 H
b010 L
1M
b001 N
b00000000000000000000000001001000 R
b00000000000000000000000001001100 S
b00000000000000000000000001001001 T
b00000000000000000000000000000001 U
b00000000000110000001100000010011 V
b0010011 [
b001 \
b00 ^
b10011000000000 `
b0010011 a
b10000 b
b00001 c
b10000 d
b00000000000000000000000000000010 e
b00000000000000000000000000000001 g
b00000000000000000000000000000100 h
1j
#77
0j
#78
b00000000000000000000000000000100 4
b00000000000000000000000001001100 D
b00000000000000000000000001010000 E
b00000000000000000000000000000101 G
b00000000000000000000000000000101 H
b110 L
0M
b000 N
b00000000000000000000000001001100 R
b00000000000000000000000001010000 S
b00000000000000000000000001001100 T
b00000000000000000000000000000000 U
b00000000110010000110100000110011 V
b0110011 [
b110 \
b10 ^
b10000000000000 `
b0110011 a
b01100 c
b00000000000000000000000000000100 e
b00000000000000000000000000000001 f
b00000000000000000000000000000101 h
1j
#79
0j
#80
b00000000000000000000000000000101 4
b00000000000000000000000101001111 D
b00000000000000000000000001010100 E
b111 L
1M
b001 N
b00000000000000000000000001010000 R
b00000000000000000000000001010100 S
b00000000000000000000000101001111 T
b00000000000000000000000011111111 U
b00001111111110000111100000010011 V
b0010011 [
b111 \
b0000111 ]
b00 ^
b10011000000000 `
b0010011 a
b11111 c
b00000000000000000000000000000101 e
b00000000000000000000000000000000 f
b00000000000000000000000011111111 g
1j
#81
0j
#82
b00000000000000000000000001010100 D
b00000000000000000000000001011000 E
b00000000000000000000000000000000 G
b00000000000000000000000000000000 H
b000 L
b00000000000000000000000001010100 R
b00000000000000000000000001011000 S
b00000000000000000000000001010100 T
b00000000000000000000000000000000 U
b00000000000000000000011000010011 V
1W
b000 \
b0000000 ]
b00000 b
b00000 c
b01100 d
b00000000000000000000000000000000 e
b00000000000000000000000000000000 g
b00000000000000000000000000000000 h
1j
#83
0j
#84
b00000000000000000000000000000000 0
b00000000000000000000000001011000 D
b00000000000000000000000001011100 E
b00000000000000000000000001011000 R
b00000000000000000000000001011100 S
b00000000000000000000000001011000 T
b00000000000000000000011010010011 V
b01101 d
1j
#85
0j
#86
b00000000000000000000000001011100 D
b00000000000000000000000001100000 E
b00000000000000000000000001011100 R
b00000000000000000000000001100000 S
b00000000000000000000000001011100 T
b00000000000000000000011100010011 V
b01110 d
1j
#87
0j
#88
b00000000000000000000000001100000 D
b00000000000000000000000001100100 E
b00000000000000000000000001100000 R
b00000000000000000000000001100100 S
b00000000000000000000000001100000 T
b00000000000000000000011110010011 V
b01111 d
1j
#89
0j
#90
b00000000000000000000000000011000 D
b00000000000000000000000000011000 E
b11111111111111111111111111111111 G
b11111111111111111111111111111111 H
1I
b001 L
0M
b100 N
0O
b00000000000000000000000001100100 R
b00000000000000000000000001101000 S
b00000000000000000000000000011000 T
b11111111111111111111111110110100 U
b11111010100100000001101011100011 V
0W
b011 X
1Y
b1100011 [
b001 \
b1111101 ]
b11 ^
b011 _
b01000000101100 `
b1100011 a
b01001 c
b10101 d
b00000000000000000000000000000001 f
b00000000000000000000000000000001 g
b11111111111111111111111111111111 h
b11111111111111111111 i
1j
#91
0j
#92
b00000000000000000000000001111000 D
b00000000000000000000000000011100 E
b00000000000000000000000000000000 G
b00000000000000000000000000000000 H
0I
b00000000000000000000000000011000 R
b00000000000000000000000000011100 S
b00000000000000000000000001111000 T
b00000000000000000000000001100000 U
b00000110000000101001000001100011 V
1W
b0000011 ]
b10 ^
b00101 b
b00000 c
b00000 d
b00000000000000000000000000000000 f
b00000000000000000000000000000000 g
b00000000000000000000000000000000 h
b00000000000000000000 i
1j
#93
0j
#94
b00000000000000000000000000011101 D
b00000000000000000000000000100000 E
b00000000000000000000000000000010 G
b00000000000000000000000000000010 H
b101 L
1M
b001 N
1O
b00000000000000000000000000011100 R
b00000000000000000000000000100000 S
b00000000000000000000000000011101 T
b00000000000000000000000000000001 U
b00000000000110000101011000010011 V
0W
b000 X
0Y
b0010011 [
b101 \
b0000000 ]
b00 ^
b000 _
b10011000000000 `
b0010011 a
b10000 b
b00001 c
b01100 d
b00000000000000000000000000000101 e
b00000000000000000000000000000001 g
b00000000000000000000000000000010 h
1j
#95
0j
#96
b00000000000000000000000000000010 0
b00000000000000000000000000100001 D
b00000000000000000000000000100100 E
b00000000000000000000000000000000 G
b00000000000000000000000000000000 H
b111 L
b00000000000000000000000000100000 R
b00000000000000000000000000100100 S
b00000000000000000000000000100001 T
b00000000000101100111011000010011 V
1W
b111 \
b01100 b
b00000000000000000000000000000010 e
b00000000000000000000000000000000 h
1j
#97
0j
