Legacy Components/Instruction Memory/instrmem.vcd
$version Generated by VerilatedVcd $end
$date Thu Nov 23 10:06:04 2023 $end
$timescale 1ps $end

 $scope module TOP $end
  $var wire 32 C addr [31:0] $end
  $var wire  1 E clk $end
  $var wire 32 F ignoreunused [31:0] $end
  $var wire 32 D instr [31:0] $end
  $scope module instrmem $end
   $var wire 32 H ADDRESS_WIDTH [31:0] $end
   $var wire 32 H DATA_WIDTH [31:0] $end
   $var wire 32 I READ_WIDTH [31:0] $end
   $var wire 32 C addr [31:0] $end
   $var wire  1 E clk $end
   $var wire 32 F ignoreunused [31:0] $end
   $var wire 32 D instr [31:0] $end
   $var wire  8 # rom_array[0] [7:0] $end
   $var wire  8 - rom_array[10] [7:0] $end
   $var wire  8 . rom_array[11] [7:0] $end
   $var wire  8 / rom_array[12] [7:0] $end
   $var wire  8 0 rom_array[13] [7:0] $end
   $var wire  8 1 rom_array[14] [7:0] $end
   $var wire  8 2 rom_array[15] [7:0] $end
   $var wire  8 3 rom_array[16] [7:0] $end
   $var wire  8 4 rom_array[17] [7:0] $end
   $var wire  8 5 rom_array[18] [7:0] $end
   $var wire  8 6 rom_array[19] [7:0] $end
   $var wire  8 $ rom_array[1] [7:0] $end
   $var wire  8 7 rom_array[20] [7:0] $end
   $var wire  8 8 rom_array[21] [7:0] $end
   $var wire  8 9 rom_array[22] [7:0] $end
   $var wire  8 : rom_array[23] [7:0] $end
   $var wire  8 ; rom_array[24] [7:0] $end
   $var wire  8 < rom_array[25] [7:0] $end
   $var wire  8 = rom_array[26] [7:0] $end
   $var wire  8 > rom_array[27] [7:0] $end
   $var wire  8 ? rom_array[28] [7:0] $end
   $var wire  8 @ rom_array[29] [7:0] $end
   $var wire  8 % rom_array[2] [7:0] $end
   $var wire  8 A rom_array[30] [7:0] $end
   $var wire  8 B rom_array[31] [7:0] $end
   $var wire  8 & rom_array[3] [7:0] $end
   $var wire  8 ' rom_array[4] [7:0] $end
   $var wire  8 ( rom_array[5] [7:0] $end
   $var wire  8 ) rom_array[6] [7:0] $end
   $var wire  8 * rom_array[7] [7:0] $end
   $var wire  8 + rom_array[8] [7:0] $end
   $var wire  8 , rom_array[9] [7:0] $end
   $var wire  5 G short [4:0] $end
  $upscope $end
 $upscope $end
$enddefinitions $end


#0
b00000000 #
b00000000 $
b00000000 %
b00000000 &
b00000000 '
b00000000 (
b00000000 )
b00000000 *
b00000000 +
b00000000 ,
b00000000 -
b00000000 .
b00000000 /
b00000000 0
b00000000 1
b00000000 2
b00000000 3
b00000000 4
b00000000 5
b00000000 6
b00000000 7
b00000000 8
b00000000 9
b00000000 :
b00000000 ;
b00000000 <
b00000000 =
b00000000 >
b00000000 ?
b00000000 @
b00000000 A
b00000000 B
b00000000000000000000000000000000 C
b00000000000000000000000000000000 D
1E
b00000000000000000000000000000000 F
b00000 G
b00000000000000000000000000100000 H
b00000000000000000000000000001000 I
#1
b00010011 #
b00000011 $
b11110000 %
b00001111 &
b00010011 '
b00000101 (
b10010011 +
b00000101 ,
b00010011 /
b10000101 0
b00000101 1
b10010011 3
b10000101 4
b00010101 5
b11100011 7
b10011100 8
b01100101 9
b11111110 :
b11100011 ;
b00011000 <
b00000011 =
b11111110 >
0E
#2
b00001111111100000000001100010011 D
1E
#3
0E
#4
b00000000000000000000000000000100 C
1E
b00100 G
#5
0E
b00000000000000000000000000000100 F
#6
b00000000000000000000000000001000 C
b00000000000000000000010100010011 D
1E
b01000 G
#7
0E
b00000000000000000000000000001000 F
#8
b00000000000000000000000000001100 C
b00000000000000000000010110010011 D
1E
b01100 G
#9
0E
b00000000000000000000000000001100 F
#10
b00000000000000000000000000010000 C
b00000000000001011000010100010011 D
1E
b10000 G
#11
0E
b00000000000000000000000000010000 F
#12
b00000000000000000000000000010100 C
b00000000000101011000010110010011 D
1E
b10100 G
#13
0E
b00000000000000000000000000010100 F
#14
b00000000000000000000000000011000 C
b11111110011001011001110011100011 D
1E
b11000 G
#15
0E
b00000000000000000000000000011000 F
#16
b00000000000000000000000000011100 C
b11111110000000110001100011100011 D
1E
b11100 G
#17
0E
b00000000000000000000000000011100 F
#18
b00000000000000000000000000000000 D
1E
